[
  {
    "isc_mstr_key": 1,
    "isc_id": 1,
    "isc_txt": "Start of care"
  },
  {
    "isc_mstr_key": 2,
    "isc_id": 3,
    "isc_txt": "Resumption of care"
  },
  {
    "isc_mstr_key": 3,
    "isc_id": 4,
    "isc_txt": "Recertification"
  },
  {
    "isc_mstr_key": 4,
    "isc_id": 5,
    "isc_txt": "Other follow-up"
  },
  {
    "isc_mstr_key": 5,
    "isc_id": 6,
    "isc_txt": "Transfer to inpatient facility--patient not discharged"
  },
  {
    "isc_mstr_key": 6,
    "isc_id": 7,
    "isc_txt": "Transfer to inpatient facility--patient discharged"
  },
  {
    "isc_mstr_key": 7,
    "isc_id": 8,
    "isc_txt": "Death at home"
  },
  {
    "isc_mstr_key": 8,
    "isc_id": 9,
    "isc_txt": "Discharge from agency"
  },
  {
    "isc_mstr_key": 9,
    "isc_id": "XX",
    "isc_txt": "Inactivation"
  }
]
