[
  {
    "itm_vrsn_txt_key": 29191,
    "itm_mstr_key": 3,
    "chg_srt_id": "0ITM_SET_VRSN_CD",
    "chg_type_txt": "Item",
    "chg_id": "ITM_SET_VRSN_CD",
    "chg_txt": "[V2.21.0]-Added ending date for C2-012017 and added [C2-012018] to value list."
  },
  {
    "itm_vrsn_txt_key": 29192,
    "itm_mstr_key": 4,
    "chg_srt_id": "0SPEC_VRSN_CD",
    "chg_type_txt": "Item",
    "chg_id": "SPEC_VRSN_CD",
    "chg_txt": "[V2.21.0]-Added ending date for V2.20, and added [2.21] to value list."
  },
  {
    "itm_vrsn_txt_key": 29193,
    "itm_mstr_key": 338,
    "chg_srt_id": "0CALCULATED_ITEMS_FILLER",
    "chg_type_txt": "Item",
    "chg_id": "CALCULATED_ITEMS_FILLER",
    "chg_txt": "[V2.21.1]-Reduced item size by 25 bytes to 463."
  },
  {
    "itm_vrsn_txt_key": 29194,
    "itm_mstr_key": 638,
    "chg_srt_id": "0C_HICN_MBI_IND",
    "chg_type_txt": "Item",
    "chg_id": "C_HICN_MBI_IND",
    "chg_txt": "[V2.21.1]-New item."
  },
  {
    "itm_vrsn_txt_key": 29195,
    "itm_mstr_key": 639,
    "chg_srt_id": "0C_SSNRI_TRNSLTN_HICN_TXT",
    "chg_type_txt": "Item",
    "chg_id": "C_SSNRI_TRNSLTN_HICN_TXT",
    "chg_txt": "[V2.21.1]-New item."
  },
  {
    "itm_vrsn_txt_key": 29196,
    "itm_mstr_key": 640,
    "chg_srt_id": "0C_SSNRI_TRNSLTN_MBI_TXT",
    "chg_type_txt": "Item",
    "chg_id": "C_SSNRI_TRNSLTN_MBI_TXT",
    "chg_txt": "[V2.21.1]-New item."
  },
  {
    "itm_vrsn_txt_key": 29197,
    "itm_mstr_key": 32,
    "chg_srt_id": "1F5480",
    "chg_type_txt": "Format",
    "chg_id": -5480,
    "chg_txt": "[V2.21.0]-New edit.  This edit will replace edits -3040 and -3050.   Please refer to the data spec overview document for additional information."
  },
  {
    "itm_vrsn_txt_key": 29198,
    "itm_mstr_key": 617,
    "chg_srt_id": "3S5490",
    "chg_type_txt": "Skip pattern",
    "chg_id": -5490,
    "chg_txt": "[V2.21.1]-New edit."
  },
  {
    "itm_vrsn_txt_key": 29199,
    "itm_mstr_key": 237,
    "chg_srt_id": "3S5490",
    "chg_type_txt": "Skip pattern",
    "chg_id": -5490,
    "chg_txt": "[V2.21.1]-New edit."
  }
]
